subLens,2016-10-01,2016-11-01,2016-12-01,2017-01-01,2017-02-01,2017-03-01,2017-04-01,2017-05-01,2017-06-01,2017-07-01,2017-08-01,2017-09-01,2017-10-01,2017-11-01,2017-12-01,2018-01-01,2018-02-01,2018-03-01,2018-04-01,2018-05-01,2018-06-01,2018-07-01,2018-08-01,2018-09-01
Beech,87,96,87,101,94,93,107,111,109,237,112,94,79,116,92,109,125,92,64,88,102,88,154,96
Espelette Pepper,6,2,5,13,0,5,0,3,1,6,8,4,2,3,2,5,10,7,3,2,2,4,4,0
Bok Choy,241,180,218,319,300,322,300,305,250,351,270,239,267,238,240,377,331,297,296,268,236,284,226,208
Calcium,1891,1541,1590,1908,1701,2136,1843,1620,1702,2090,1548,1384,1403,1292,1391,1688,1517,1775,1392,1560,1899,1465,1378,1109
Miraculin,0,7,2,11,4,2,0,1,1,5,1,0,0,1,0,2,0,4,0,1,2,1,0,2
Bilberry,15,14,22,17,22,23,17,6,15,19,21,10,24,11,16,12,10,7,10,11,10,14,8,14
Barley Malt,20,12,15,20,17,24,25,20,19,12,26,32,15,24,14,29,13,23,21,9,9,14,15,17
Nard,11,2,2,10,6,2,2,2,7,14,33,8,7,10,5,14,11,10,6,11,4,5,10,4
Peruvian Pepper,2,5,1,1,2,1,1,3,1,2,2,1,1,4,1,3,1,4,3,1,3,3,3,5
Penicillium Camemberti,0,0,1,0,0,0,0,0,0,1,0,0,0,4,0,0,0,0,0,2,0,0,2,0
